{
  "code": "0",
  "result": {
    "page": 1,
    "page_size": 10,
    "total_count": 85,
    "page_count": 9,
    "item_list": [
      {
        "id": 1,
        "order_sn": "T180292515",
        "bike_sn": "800116090",
        "user_id": 908352,
        "user_name": "李秀兰",
        "mobile": "15481461572",
        "distance": 2000,
        "total_time": 4000,
        "status": 1,
        "start_time": "2000-02-07 14:20:34",
        "end_time": "2020-03-05 21:15:41",
        "total_fee": 1000,
        "user_pay": 300
      },
      {
        "id": 2,
        "order_sn": "T180242571",
        "bike_sn": "800116090",
        "user_id": 908352,
        "user_name": "黎超",
        "mobile": "13844311764",
        "distance": 2000,
        "total_time": 4000,
        "status": 2,
        "start_time": "1997-11-17 13:11:57",
        "end_time": "2014-05-19 18:41:18",
        "total_fee": 1000,
        "user_pay": 300
      },
      {
        "id": 3,
        "order_sn": "T180418431",
        "bike_sn": "800116090",
        "user_id": 908352,
        "user_name": "汪娟",
        "mobile": "13373425836",
        "distance": 2000,
        "total_time": 4000,
        "status": 1,
        "start_time": "1981-07-13 17:43:17",
        "end_time": "1990-01-02 07:33:18",
        "total_fee": 1000,
        "user_pay": 300
      },
      {
        "id": 4,
        "order_sn": "T180721440",
        "bike_sn": "800116090",
        "user_id": 908352,
        "user_name": "秦勇",
        "mobile": "17672878362",
        "distance": 2000,
        "total_time": 4000,
        "status": 2,
        "start_time": "2000-08-19 22:07:50",
        "end_time": "1989-04-08 13:50:06",
        "total_fee": 1000,
        "user_pay": 300
      },
      {
        "id": 5,
        "order_sn": "T180278687",
        "bike_sn": "800116090",
        "user_id": 908352,
        "user_name": "沈娟",
        "mobile": "12453067673",
        "distance": 2000,
        "total_time": 4000,
        "status": 2,
        "start_time": "2018-09-08 18:10:06",
        "end_time": "1987-05-26 17:58:10",
        "total_fee": 1000,
        "user_pay": 300
      },
      {
        "id": 6,
        "order_sn": "T180965806",
        "bike_sn": "800116090",
        "user_id": 908352,
        "user_name": "林静",
        "mobile": "19766121026",
        "distance": 2000,
        "total_time": 4000,
        "status": 1,
        "start_time": "2005-08-29 07:46:38",
        "end_time": "1981-12-17 08:52:30",
        "total_fee": 1000,
        "user_pay": 300
      },
      {
        "id": 7,
        "order_sn": "T180338472",
        "bike_sn": "800116090",
        "user_id": 908352,
        "user_name": "夏敏",
        "mobile": "18123087877",
        "distance": 2000,
        "total_time": 4000,
        "status": 1,
        "start_time": "2020-01-03 23:02:07",
        "end_time": "2001-06-10 10:21:19",
        "total_fee": 1000,
        "user_pay": 300
      },
      {
        "id": 8,
        "order_sn": "T180251328",
        "bike_sn": "800116090",
        "user_id": 908352,
        "user_name": "蒋刚",
        "mobile": "12324669470",
        "distance": 2000,
        "total_time": 4000,
        "status": 2,
        "start_time": "1971-05-18 00:05:32",
        "end_time": "1988-11-17 15:33:14",
        "total_fee": 1000,
        "user_pay": 300
      },
      {
        "id": 9,
        "order_sn": "T180884783",
        "bike_sn": "800116090",
        "user_id": 908352,
        "user_name": "刘桂英",
        "mobile": "18091639134",
        "distance": 2000,
        "total_time": 4000,
        "status": 2,
        "start_time": "1993-05-03 03:26:23",
        "end_time": "2006-05-31 19:13:00",
        "total_fee": 1000,
        "user_pay": 300
      },
      {
        "id": 10,
        "order_sn": "T180039144",
        "bike_sn": "800116090",
        "user_id": 908352,
        "user_name": "王丽",
        "mobile": "13128371841",
        "distance": 2000,
        "total_time": 4000,
        "status": 2,
        "start_time": "1974-01-22 07:45:19",
        "end_time": "1985-04-04 08:09:54",
        "total_fee": 1000,
        "user_pay": 300
      }
    ]
  }
}